{
  "globalDependencies": {
    "interact": "registry:dt/interact#1.0.25+20160613160313",
    "react": "registry:dt/react#0.14.0+20160817201227",
    "react-dom": "registry:dt/react-dom#0.14.0+20160412154040"
  }
}
